{
  "tracks": {
    "href": "https://api.spotify.com/v1/search?query=Bass+Modulators+The+Cube&type=track&market=US&offset=0&limit=1",
    "items": [
      {
        "album": {
          "album_type": "single",
          "artists": [
            {
              "external_urls": {
                "spotify": "https://open.spotify.com/artist/1Uk4IDpF1OIuTzANugS5JC"
              },
              "href": "https://api.spotify.com/v1/artists/1Uk4IDpF1OIuTzANugS5JC",
              "id": "1Uk4IDpF1OIuTzANugS5JC",
              "name": "Bass Modulators",
              "type": "artist",
              "uri": "spotify:artist:1Uk4IDpF1OIuTzANugS5JC"
            }
          ],
          "external_urls": {
            "spotify": "https://open.spotify.com/album/548egMoQzK6ZTA1avKF5fY"
          },
          "href": "https://api.spotify.com/v1/albums/548egMoQzK6ZTA1avKF5fY",
          "id": "548egMoQzK6ZTA1avKF5fY",
          "images": [
            {
              "height": 640,
              "url": "https://i.scdn.co/image/ab67616d0000b2738295b274f0cee3ad34bbf60f",
              "width": 640
            },
            {
              "height": 300,
              "url": "https://i.scdn.co/image/ab67616d00001e028295b274f0cee3ad34bbf60f",
              "width": 300
            },
            {
              "height": 64,
              "url": "https://i.scdn.co/image/ab67616d000048518295b274f0cee3ad34bbf60f",
              "width": 64
            }
          ],
          "name": "Indeep / The Cube",
          "release_date": "2008-11-10",
          "release_date_precision": "day",
          "total_tracks": 2,
          "type": "album",
          "uri": "spotify:album:548egMoQzK6ZTA1avKF5fY"
        },
        "artists": [
          {
            "external_urls": {
              "spotify": "https://open.spotify.com/artist/1Uk4IDpF1OIuTzANugS5JC"
            },
            "href": "https://api.spotify.com/v1/artists/1Uk4IDpF1OIuTzANugS5JC",
            "id": "1Uk4IDpF1OIuTzANugS5JC",
            "name": "Bass Modulators",
            "type": "artist",
            "uri": "spotify:artist:1Uk4IDpF1OIuTzANugS5JC"
          }
        ],
        "disc_number": 1,
        "duration_ms": 422765,
        "explicit": false,
        "external_ids": {
          "isrc": "ITK100800009"
        },
        "external_urls": {
          "spotify": "https://open.spotify.com/track/6ntNRMwIDBAUFJft33d5S3"
        },
        "href": "https://api.spotify.com/v1/tracks/6ntNRMwIDBAUFJft33d5S3",
        "id": "6ntNRMwIDBAUFJft33d5S3",
        "is_local": false,
        "is_playable": true,
        "name": "The Cube - Original Mix",
        "popularity": 7,
        "preview_url": "https://p.scdn.co/mp3-preview/cf993b20d109ac60fd2cd3997d7a73889a910dcd?cid=774b29d4f13844c495f206cafdad9c86",
        "track_number": 2,
        "type": "track",
        "uri": "spotify:track:6ntNRMwIDBAUFJft33d5S3"
      }
    ],
    "limit": 1,
    "next": "https://api.spotify.com/v1/search?query=Bass+Modulators+The+Cube&type=track&market=US&offset=1&limit=1",
    "offset": 0,
    "previous": null,
    "total": 5
  }
}